^C:\USERS\STUDENYJ\APPDATA\LOCAL\TEMPORARY PROJECTS\WINDOWSFORMSAPPLICATION1\FORM1.RESX
^C:\USERS\STUDENYJ\APPDATA\LOCAL\TEMPORARY PROJECTS\WINDOWSFORMSAPPLICATION1\PROPERTIES\RESOURCES.RESX
^M:\C#TEXT_HANDLING\TEXT_HANDLING\PROPERTIES\RESOURCES.RESX
^M:\C#TEXT_HANDLING\TEXT_HANDLING\FORM1.RESX
